{
  ":":{
    "terms": {
      "field": "Hanzi",
      "language_code": "zh-CN"
    },
    "definitions": {
      "field": "Pinyin (English)",
      "language_code": "zh-pi"
    }
  },
  "Pinyin -> Hanzi":{
    "terms": {
      "field": "Hanzi",
      "language_code": "zh-CN"
    },
    "definitions": {
      "field": "Pinyin (English)",
      "language_code": "zh-pi"
    }
  },
  "English -> Pinyin":{
    "terms": {
      "field": "Pinyin",
      "language_code": "zh-pi"
    },
    "definitions": {
      "field": "English",
      "language_code": "en"
    }
  },
  "Hanzi -> English":{
    "terms": {
      "field": "Hanzi",
      "language_code": "zh-CN"
    },
    "definitions": {
      "field": "English",
      "language_code": "en"
    }
  }
}