﻿Kapitel,Hanzi,Pinyin,English
numbers,,,
,一,yī,one
,二,èr,two
,三,sān,three
,四,sì,four
,五,wǔ,five
,六,liù,six
,七,qī,seven
,八,bā,eight
,九,jiǔ,nine
,十,shí,ten
,两,liǎng,two
,零,líng,zero
,百,bǎi,hundred
,千,qiān,thousand
,万,wàn,ten thousand
weekdays,,,
,星期一,xīng qī yī,Monday
,星期二,xīng qī èr,Tuesday
,星期三,xīng qī sān,Wednesday
,星期四,xīng qī sì,Thursday
,星期五,xīng qī wǔ,Friday
,星期六,xīng qī liù,Saturday
,星期日,xīng qī rì,Sunday
time,,,
,早上 ,zǎo shang, early morning
,晚上 ,wǎn shàng, evening
,号, hào ,date
,月, yuè , month
,星期, xīng qī , week
,昨天, zuó tiān , yesterday
,明天, míng tiān , tomorrow
,下午, xià wǔ , afternoon
,现在, xiàn zài , now
,去年,qù nián ,last year
,今年, jīn nián , this year
,明年, míng nián , next year
,点, diǎn , o'clock
,分, fēn , minute (point in time)
,中午, zhōng wǔ , noon
,上午 , shàng wǔ ," morning, before noon"
,时候, shí hou , point in time
,分钟 , fēn zhōng , minute (timespan)
,年 ,nián , year
,时间 ,shí jiān, time
,前, qián , before earlier than
,以后 ,yǐ hòu," after, afterwards, later"
electronics,,,
,电视,diàn shì,TV
,电话,diàn huà,telephone
,电脑 , diàn nǎo , computer
,电影, diàn yǐng , movie
,电饭锅,diàn fàn guō,rice cooker
,手机,shǒu jī,smartphone
,计算器,jì suàn qì,calculator
,耳机,ěr jī,earphones
,笔记本电脑,bǐ jì běn diàn nǎo,laptop
,遥控,yáo kòng,remote control
,风扇,fēng shàn,fan
,插座,chā zuò,socket
,充电器,chōng diàn qì,charger
,洗碗机,xǐ wǎn jī,dishwasher
,洗衣机,xǐ yī jī,washing machine
,咖啡机,kā fēi jī,coffe machine
,热水器,rè shuǐ qì,water heater
,冰箱,bīng xiāng,fridge
drinks,,,
,可乐,kělè,Coca Cola
,水, shuǐ , water
,茶, chá , tea
,红茶,hóng chá,black tea
,绿茶,lǜ chá,green tea
,红酒,hóng jiǔ,red wine
,白酒,bái jiǔ,"spiritus, white wine"
,啤酒,pí jiǔ,beer
,自来水,zì lái shuǐ,tap water
,果汁,guǒ zhī,juice
,牛奶,niú nǎi,milk
,咖啡 ,kā fēi, coffee
food,,,
,菜, cài ," dish, cuisine, vegetable"
,苹果,píng guǒ,apple
,鸡蛋,jī dàn,egg
,水果, shuǐ guǒ , fruit
,米饭, mǐ fàn , cooked rice
,猪肉,zhū ròu,pork
,牛肉,niú ròu,beef
,羊肉,yáng ròu,"lamb, mutton"
,鸡肉,jī ròu,chicken
,鱼肉,yú ròu,fish
,马肉,mǎ ròu,horse meat
,鹿肉,lù ròu,venison
,鹅肉,é ròu,goose meat
,鸽子肉,gē zi ròu,pigeon meat
,羊排,yáng pái,lamb chops
,土豆,tǔ dòu,potato
,番茄,fān qié,tomato
,豆腐,dòu fu,tofu
,绿豆,lǜ dòu,green beans
,面条,miàn tiáo,noodles
,炒面,chǎo miàn,fried noodles
,炒饭,chǎo fàn,fried rice
,面粉,miàn fěn,flour
,面包,miàn bāo,bread
,西瓜,xī guā,watermelon
positions,,,
,里 , lǐ ," inner, inside, interior"
,外面 ,wài miàn,outside
,前面 , qián miàn , front
,后面 , hòu miàn , back
,上面, shàng mian ," up, above"
,下面, xià mian ," under, below"
,右边,yòu biān,"right, right side"
,左边 ,zuǒ biān, left side
,旁边 ,páng biān," next to,beside"
,这儿 , zhèr , here
,在, zài ," at, in"
,那儿, nàr , there
,哪儿, nǎr , where
directions,,,
,近,jìn,"close, near"
,远 ,yuǎn, far
,北,běi,north
,南,nán,south
,西,xī,west
,东,dōng,east
family,,,
,姐姐 ,jiě jiě, elder sister
,妈妈, mā ma , mother
,爸爸, bà ba ," dad, father"
,女儿, nǚ ér , daughter
,家, jiā , family
,口, kǒu , ZEW family members
,口人,kǒu rén,number of family members
,弟弟,dì dì,little brother
,哥哥,gē gē,older brother
,妹妹,mèi mei,little sister
,丈夫 ,zhàng fū, husband
,妻子,qī zi,wife
,祖母,zǔ mǔ,grandmother
,奶奶,nǎi nai,grandmother (fatherside)
,外婆,wài pó,grandmother (motherside)
,婆婆,pó po,mother-in-law
,岳父,yuè fù,father-in-law
,表妹,biǎo mèi,cousin
,孩子,hái zi,"child, kid"
,父母,fù mǔ,parents
,儿子, ér zi , son
jobs,,,
,工程师,gōng chéng shī,engineer
,厨师,chú shī,chef
,服务员,fú wù yuán,waiter
,公车司机,gōng chē sī jī,bus-driver
,机械师,jī xiè shī,mechanic
,飞行员,fēi xíng yuán,pilot
,医生,yī shēng,doctor
,总统,zǒng tǒng,president
,主席,zhǔ xí,chairman
school,,,
,老师,lǎo shī,teacher
,教授,Jiào shòu,professor
,读书,dú shū,go to school
,看书,kàn shū,to read a book
,大学 ,dà xué ," college, university"
,学习 , xué xí ," to study, learn"
,学生, xué sheng , student
,同学, tóng xué , classmate
,学校, xué xiào , school
,教室 ,jiào shì, classroom
,课,kè,"class, lesson"
,考试 ,kǎo shì, exam
transport,,,
,车 , chē , vehicle
,出租车 ,chū zū chē , taxi
,自行车 ,zì xíng chē, bicycle
,路 ,lù," road，road, path, way"
,公共汽车 ,gōng gòng qì chē, public bus
,走 ,zǒu, to walk
,到 ,dào," to arrive, to reach"
,开 , kāi , to drive
,铁路,tiě lù,railway
,火车,huǒ chē,train
,电车,diàn chē,tram
,汽车,qì chē,car
,马车,mǎ chē,horse coach
,摩托车,mó tuō chē,motorcycle
,飞机,fēi jī,airplane
,机场 ,jī chǎng, airport
,火车站,huǒ chē zhàn,train station
,渡船,dù chuán,ferry
,港口,gǎng kǒu,port
,公交车站,gōng jiāo chē zhàn,bus stop
,直升机,zhí shēng jī,helicopter
,电动车,diàn dòng chē,electric car
,卡车,kǎ chē,truck
,骑,qí,to ride
buildings,,,
,医院, yī yuàn , hospital
,商店, shāng diàn ," store, shop"
,饭店 ,fàn diàn ," restaurant, hotel"
,法院,fǎ yuàn,court of justice
,游泳池,yóu yǒng chí,swimming pool
,旅馆,lǚ guǎn,hotel
,洗衣店,xǐ yī diàn,laundry
names,,,
,李月,lǐ yuè, Li Yue
,王方 ,wáng fāng,Wang Fang
,谢明 ,xiè míng,Xie Ming
,大卫 , dà wèi , David
,张 , zhāng , Zhang (Chinese family name)
,小丽 , xiǎo lì, Xiao Li
,小刚 , xiǎo gāng , Xiao Gang
,周明 , zhōu míng,Zhou Ming
,马可 , mǎ kě, Marco
,李静 , lǐ jìng,Li Jing
,大山 , dàshān, Dashan
,小明 , xiǎo míng,Xiao Ming
,李小美 , lǐ xiǎoměi,Li Xiaomei
,小云 , xiǎo yún ,Xiao Yun
sw_engineering,,,
,单元测试,Dānyuán cèshì,unittest
,构建服务器,Gòujiàn fúwùqì,Build server
,固件,Gùjiàn,firmware
,操作系统,Cāozuò xìtǒng,operating system
,编译器警告,Biānyì qì jǐnggào,Compiler warning
,编译器,Biānyì qì,Compiler
,存储器,Cúnchúqì,memory
,移动文件,Yídòng wénjiàn,moving files
,软件,Ruǎnjiàn,software
,硬件,Yìngjiàn,hardware
